{
  "project_info": {
    "project_number": "909693131335",
    "firebase_url": "https://ehoje-5c5a1.firebaseio.com",
    "project_id": "ehoje-5c5a1",
    "storage_bucket": "ehoje-5c5a1.appspot.com"
  },
  "client": [
    {
      "client_info": {
        "mobilesdk_app_id": "1:909693131335:android:6df85fd972318213",
        "android_client_info": {
          "package_name": "com.maonamassa.ehoje"
        }
      },
      "oauth_client": [
        {
          "client_id": "909693131335-3n9hgs66s0on55r2ndtdlhhtcncs3v62.apps.googleusercontent.com",
          "client_type": 3
        }
      ],
      "api_key": [
        {
          "current_key": "AIzaSyBHVgUkbmzAh5l_0cWPpojF2_dJ7k-ze1Y"
        }
      ],
      "services": {
        "analytics_service": {
          "status": 1
        },
        "appinvite_service": {
          "status": 1,
          "other_platform_oauth_client": []
        },
        "ads_service": {
          "status": 2
        }
      }
    }
  ],
  "configuration_version": "1"
}